Guangnan_WEI.utf8
…
taster_name
Le dgustateur / critique

title
Le titre de la revue de vin, qui contient souvent le millsime (anne)

variety
Type de raisin

winery
La cave qui a fait le vin

1.2 Importation de donnes

## # A tibble: 129,971 x 14
##       X1 country description designation points price province region_1 region_2
##    <dbl> <chr>   <chr>       <chr>        <dbl> <dbl> <chr>    <chr>    <chr>   
##  1     0 Italy   Aromas inc Vulk Bian     87    NA Sicily  Etna     <NA>    
##  2     1 Portug This is ri Avidagos        87    15 Douro    <NA>     <NA>    
##  3     2 US      Tart and s <NA>            87    14 Oregon   Willame Willame
##  4     3 US      Pineapple  Reserve La     87    13 Michigan Lake Mi <NA>    
##  5     4 US      Much like  Vintner's      87    65 Oregon   Willame Willame
##  6     5 Spain   Blackberry Ars In Vit     87    15 Norther Navarra  <NA>    
##  7     6 Italy   Here's a b Belsito         87    16 Sicily  Vittoria <NA>    
##  8     7 France  This dry a <NA>            87    24 Alsace   Alsace   <NA>    
##  9     8 Germany Savory dri Shine           87    12 Rheinhe <NA>     <NA>    
## 10     9 France  This has g Les Natures     87    27 Alsace   Alsace   <NA>    
## #  with 129,961 more rows, and 5 more variables: taster_name <chr>,
## #   taster_twitter_handle <chr>, title <chr>, variety <chr>, winery <chr>

2. Analyse des donnes

2.1 Extraction de donnes

>Afin de rendre la table de donnes plus lisible, limine ces variables inutiles 

wine_use<- wine_ratings%>%
  select(-X1,-description,-taster_name,-region_2,-taster_twitter_handle,-title,-winery,-designation)
wine_use  

## # A tibble: 129,971 x 6
##    country  points price province          region_1            variety          
##    <chr>     <dbl> <dbl> <chr>             <chr>               <chr>            
##  1 Italy        87    NA Sicily & Sardinia Etna                White Blend      
##  2 Portugal     87    15 Douro             <NA>                Portuguese Red   
##  3 US           87    14 Oregon            Willamette Valley   Pinot Gris       
##  4 US           87    13 Michigan          Lake Michigan Shore Riesling         
##  5 US           87    65 Oregon            Willamette Valley   Pinot Noir       
##  6 Spain        87    15 Northern Spain    Navarra             Tempranillo-Merl
##  7 Italy        87    16 Sicily & Sardinia Vittoria            Frappato         
##  8 France       87    24 Alsace            Alsace              Gewrztraminer   
##  9 Germany      87    12 Rheinhessen       <NA>                Gewrztraminer   
## 10 France       87    27 Alsace            Alsace              Pinot Gris       
## #  with 129,961 more rows
…
