Exercices Lecture 4
…
Exercice 8: separate()

utilisez world_bank_pop et crez une variable qui vous permette de distinguer entre indicateurs pop and urban et une autre pour distinguer enre indicateurs de total and growth.

wbp %>% 
  separate(indicator, into = c("poubelle", "urb_pop", "tot_grow")) %>% 
  select(-poubelle)

## # A tibble: 1,056 x 21
##    country urb_pop tot_grow `2000` `2001` `2002` `2003`  `2004`  `2005`
##    <chr>   <chr>   <chr>     <dbl>  <dbl>  <dbl>  <dbl>   <dbl>   <dbl>
##  1 ABW     URB     TOTL     4.24e4 4.30e4 4.37e4 4.42e4 4.47e+4 4.49e+4
##  2 ABW     URB     GROW     1.18e0 1.41e0 1.43e0 1.31e0 9.51e-1 4.91e-1
##  3 ABW     POP     TOTL     9.09e4 9.29e4 9.50e4 9.70e4 9.87e+4 1.00e+5
##  4 ABW     POP     GROW     2.06e0 2.23e0 2.23e0 2.11e0 1.76e+0 1.30e+0
##  5 AFG     URB     TOTL     4.44e6 4.65e6 4.89e6 5.16e6 5.43e+6 5.69e+6
##  6 AFG     URB     GROW     3.91e0 4.66e0 5.13e0 5.23e0 5.12e+0 4.77e+0
##  7 AFG     POP     TOTL     2.01e7 2.10e7 2.20e7 2.31e7 2.41e+7 2.51e+7
##  8 AFG     POP     GROW     3.49e0 4.25e0 4.72e0 4.82e0 4.47e+0 3.87e+0
##  9 AGO     URB     TOTL     8.23e6 8.71e6 9.22e6 9.77e6 1.03e+7 1.09e+7
## 10 AGO     URB     GROW     5.44e0 5.59e0 5.70e0 5.76e0 5.75e+0 5.69e+0
## #  with 1,046 more rows, and 12 more variables: `2006` <dbl>,
## #   `2007` <dbl>, `2008` <dbl>, `2009` <dbl>, `2010` <dbl>, `2011` <dbl>,
## #   `2012` <dbl>, `2013` <dbl>, `2014` <dbl>, `2015` <dbl>, `2016` <dbl>,
## #   `2017` <dbl>
…
Exercice 10: unite()

utilisez le jeu de donnes flights et crez une variable unique date pour jour, mois et anne

flights %>% 
  unite("date", day, month, year, sep = ".")

## # A tibble: 336,776 x 17
##    date  dep_time sched_dep_time dep_delay arr_time sched_arr_time
##    <chr>    <int>          <int>     <dbl>    <int>          <int>
##  1 1.1.      517            515         2      830            819
##  2 1.1.      533            529         4      850            830
##  3 1.1.      542            540         2      923            850
##  4 1.1.      544            545        -1     1004           1022
##  5 1.1.      554            600        -6      812            837
##  6 1.1.      554            558        -4      740            728
##  7 1.1.      555            600        -5      913            854
##  8 1.1.      557            600        -3      709            723
##  9 1.1.      557            600        -3      838            846
## 10 1.1.      558            600        -2      753            745
## #  with 336,766 more rows, and 11 more variables: arr_delay <dbl>,
## #   carrier <chr>, flight <int>, tailnum <chr>, origin <chr>, dest <chr>,
## #   air_time <dbl>, distance <dbl>, hour <dbl>, minute <dbl>,
## #   time_hour <dttm>
…
