rapport-coffee rating
…
le grain de caf joue un rle trs important dans la vie quotidienne. Il y a deux espces de grains de caf commercent conomiquement dans le monde. Ce sont lArabica et le Robusta. Dans le monde, environ 60% de produits de caf sont fabriqus par le grain de lArabica et 40% par le Robusta. Dailleurs, les grains de caf font une grande partie de commerce export pour les pays en dveloppement. Les dgustateurs de caf valuent la qualit de grain de caf en fonction du got, en particulier de la douceur, de lacidit et de larrire-got. Les grains de caf incarnent des saveurs rvlatrices dans chaque rgion, donc les dgustateurs peuvent identifier lorigine du caf.

Dans ce rapport, nous allons commencer une discussion sur la qualit des grains de caf par 8 variables : la note gnrale (chelle de 0  100), les espces des grains de caf (arabica ou robusta), les pays dorigine des grains, les entreprises, les couleurs des grains, les rgions des grains, Classe de douceur, Classe dacidit. Enfin, aprs lanalyse ces donnes, nous pouvons slectionner les grains de caf de bonnes qualits lorsque nous ferons lachat.

II) Prsentation des donnes

Ces donnes ont t collectes  partir des pages dexamen de Coffee Quality Institute en janvier 2018. Jai pris ces donnes sur ce site: https://raw.githubusercontent.com/rfordatascience/tidytuesday/master/data/2020/2020-07-07/coffee_ratings.csv. Ils contiennent 1339 observations en colonnes et 43 variables en lignes. Dans mon rapport, je vais utiliser 8 variables et 1339 observations afin de procder le jeu des donnes.

1) Obtention des donnes originales

coffee_ratings <- readr::read_csv('https://raw.githubusercontent.com/rfordatascience/tidytuesday/master/data/2020/2020-07-07/coffee_ratings.csv')
coffee_ratings

## # A tibble: 1,339 x 43
##    total_cup_points species owner country_of_orig~ farm_name lot_number mill 
##               <dbl> <chr>   <chr> <chr>            <chr>     <chr>      <chr>
##  1             90.6 Arabica meta~ Ethiopia         "metad p~ <NA>       meta~
##  2             89.9 Arabica meta~ Ethiopia         "metad p~ <NA>       meta~
##  3             89.8 Arabica grou~ Guatemala        "san mar~ <NA>       <NA> 
##  4             89   Arabica yidn~ Ethiopia         "yidneka~ <NA>       wole~
##  5             88.8 Arabica meta~ Ethiopia         "metad p~ <NA>       meta~
##  6             88.8 Arabica ji-a~ Brazil            <NA>     <NA>       <NA> 
##  7             88.8 Arabica hugo~ Peru              <NA>     <NA>       hvc  
##  8             88.7 Arabica ethi~ Ethiopia         "aolme"   <NA>       c.p.~
##  9             88.4 Arabica ethi~ Ethiopia         "aolme"   <NA>       c.p.~
## 10             88.2 Arabica diam~ Ethiopia         "tulla c~ <NA>       tull~
## # ... with 1,329 more rows, and 36 more variables: ico_number <chr>,
## #   company <chr>, altitude <chr>, region <chr>, producer <chr>,
## #   number_of_bags <dbl>, bag_weight <chr>, in_country_partner <chr>,
## #   harvest_year <chr>, grading_date <chr>, owner_1 <chr>, variety <chr>,
## #   processing_method <chr>, aroma <dbl>, flavor <dbl>, aftertaste <dbl>,
## #   acidity <dbl>, body <dbl>, balance <dbl>, uniformity <dbl>,
## #   clean_cup <dbl>, sweetness <dbl>, cupper_points <dbl>, moisture <dbl>,
## #   category_one_defects <dbl>, quakers <dbl>, color <chr>,
## #   category_two_defects <dbl>, expiration <chr>, certification_body <chr>,
## #   certification_address <chr>, certification_contact <chr>,
## #   unit_of_measurement <chr>, altitude_low_meters <dbl>,
## #   altitude_high_meters <dbl>, altitude_mean_meters <dbl>

#View(coffee_ratings)

2) Reconstruction des donnes-Slecter les 8 variable

new_table<-select(coffee_ratings,total_cup_points,species,country_of_origin,
                  company,region,color,acidity,sweetness)
new_table

## # A tibble: 1,339 x 8
##    total_cup_points species country_of_orig~ company region color acidity
##               <dbl> <chr>   <chr>            <chr>   <chr>  <chr>   <dbl>
##  1             90.6 Arabica Ethiopia         metad ~ guji-~ Green    8.75
##  2             89.9 Arabica Ethiopia         metad ~ guji-~ Green    8.58
##  3             89.8 Arabica Guatemala        <NA>    <NA>   <NA>     8.42
##  4             89   Arabica Ethiopia         yidnek~ oromia Green    8.42
##  5             88.8 Arabica Ethiopia         metad ~ guji-~ Green    8.5 
##  6             88.8 Arabica Brazil           <NA>    <NA>   Blui~    8.5 
##  7             88.8 Arabica Peru             richmo~ <NA>   Blui~    8.5 
##  8             88.7 Arabica Ethiopia         <NA>    oromia <NA>     8.42
##  9             88.4 Arabica Ethiopia         <NA>    oromi~ <NA>     8.42
## 10             88.2 Arabica Ethiopia         diamon~ snnp/~ Green    8.5 
## # ... with 1,329 more rows, and 1 more variable: sweetness <dbl>
…
Total rating/points (0 - 100 scale) =Note totale / points (chelle de 0  100), species =Espce de grain de caf (arabica ou robusta),country_of_origin=Pays dorigine du grain, company=Nom de lentreprise, color=Couleur du grain,region=Rgion do provient le grain, sweetness=Classe de douceur, acidity=Classe dacidit

df<-new_table%>%
  rename("notes"="total_cup_points",
         "espce"="species",
         "pays"="country_of_origin",
           "nom_entreprise"="company",
         "rgion"="region",
         "couleur"="color",
         "acidit"="acidity",
         "douceur"="sweetness")
df

## # A tibble: 1,339 x 8
##    notes espce  pays   nom_entreprise      rgion      couleur  acidit douceur
##    <dbl> <chr>   <chr>  <chr>               <chr>       <chr>      <dbl>   <dbl>
##  1  90.6 Arabica Ethio~ metad agricultural~ guji-hambe~ Green       8.75   10   
##  2  89.9 Arabica Ethio~ metad agricultural~ guji-hambe~ Green       8.58   10   
##  3  89.8 Arabica Guate~ <NA>                <NA>        <NA>        8.42   10   
##  4  89   Arabica Ethio~ yidnekachew debess~ oromia      Green       8.42   10   
##  5  88.8 Arabica Ethio~ metad agricultural~ guji-hambe~ Green       8.5    10   
##  6  88.8 Arabica Brazil <NA>                <NA>        Bluish-~    8.5    10   
##  7  88.8 Arabica Peru   richmond investmen~ <NA>        Bluish-~    8.5    10   
##  8  88.7 Arabica Ethio~ <NA>                oromia      <NA>        8.42    9.33
##  9  88.4 Arabica Ethio~ <NA>                oromiya     <NA>        8.42    9.33
## 10  88.2 Arabica Ethio~ diamond enterprise~ snnp/kaffa~ Green       8.5    10   
## # ... with 1,329 more rows
…
