Introduction to R and the tidyverse
…
and it is even ebtter to do it because .csv is universal

while other binary formats (.dta, .xls) force you to have the appropriate tool for reading them

so try to keep a copy of your data in a text-based format, it is always readable should everything go wrong.

Data manipulation

Getting to know the data: inspection

library(nycflights13)

flights

## # A tibble: 336,776 x 19
##     year month   day dep_time sched_dep_time dep_delay arr_time
##    <int> <int> <int>    <int>          <int>     <dbl>    <int>
##  1  2013     1     1      517            515         2      830
##  2  2013     1     1      533            529         4      850
##  3  2013     1     1      542            540         2      923
##  4  2013     1     1      544            545        -1     1004
##  5  2013     1     1      554            600        -6      812
##  6  2013     1     1      554            558        -4      740
##  7  2013     1     1      555            600        -5      913
##  8  2013     1     1      557            600        -3      709
##  9  2013     1     1      557            600        -3      838
## 10  2013     1     1      558            600        -2      753
## #  with 336,766 more rows, and 12 more variables: sched_arr_time <int>,
## #   arr_delay <dbl>, carrier <chr>, flight <int>, tailnum <chr>,
## #   origin <chr>, dest <chr>, air_time <dbl>, distance <dbl>, hour <dbl>,
## #   minute <dbl>, time_hour <dttm>
…
Importing data in your workspace

flights is not yet in your workspace

if you want to import it, you have to do it explicitely

using <-

the standard name for a data frame in usual code is df (you are free to use any other)

df <- flights
df

## # A tibble: 336,776 x 19
##     year month   day dep_time sched_dep_time dep_delay arr_time
##    <int> <int> <int>    <int>          <int>     <dbl>    <int>
##  1  2013     1     1      517            515         2      830
##  2  2013     1     1      533            529         4      850
##  3  2013     1     1      542            540         2      923
##  4  2013     1     1      544            545        -1     1004
##  5  2013     1     1      554            600        -6      812
##  6  2013     1     1      554            558        -4      740
##  7  2013     1     1      555            600        -5      913
##  8  2013     1     1      557            600        -3      709
##  9  2013     1     1      557            600        -3      838
## 10  2013     1     1      558            600        -2      753
## #  with 336,766 more rows, and 12 more variables: sched_arr_time <int>,
## #   arr_delay <dbl>, carrier <chr>, flight <int>, tailnum <chr>,
## #   origin <chr>, dest <chr>, air_time <dbl>, distance <dbl>, hour <dbl>,
## #   minute <dbl>, time_hour <dttm>
…
data is your data

logic is a logical statement that tells filter() what mut be included or not

R understands all usual comparison operators >, >=, <, <=, !=, ==

R understand also logial operators are &, |, !

##Filtering

all December flights

filter(df, month == 12)

## # A tibble: 28,135 x 19
##     year month   day dep_time sched_dep_time dep_delay arr_time
##    <int> <int> <int>    <int>          <int>     <dbl>    <int>
##  1  2013    12     1       13           2359        14      446
##  2  2013    12     1       17           2359        18      443
##  3  2013    12     1      453            500        -7      636
##  4  2013    12     1      520            515         5      749
##  5  2013    12     1      536            540        -4      845
##  6  2013    12     1      540            550       -10     1005
##  7  2013    12     1      541            545        -4      734
##  8  2013    12     1      546            545         1      826
##  9  2013    12     1      549            600       -11      648
## 10  2013    12     1      550            600       -10      825
## #  with 28,125 more rows, and 12 more variables: sched_arr_time <int>,
## #   arr_delay <dbl>, carrier <chr>, flight <int>, tailnum <chr>,
## #   origin <chr>, dest <chr>, air_time <dbl>, distance <dbl>, hour <dbl>,
## #   minute <dbl>, time_hour <dttm>

##Filtering over multiple criteria > all Christmas flights departed around midday

filter(df, month == 12 & day == 25 & dep_time>1100 & dep_time <1300)

## # A tibble: 86 x 19
##     year month   day dep_time sched_dep_time dep_delay arr_time
##    <int> <int> <int>    <int>          <int>     <dbl>    <int>
##  1  2013    12    25     1103           1105        -2     1209
##  2  2013    12    25     1105           1100         5     1359
##  3  2013    12    25     1105           1000        65     1332
##  4  2013    12    25     1107           1059         8     1341
##  5  2013    12    25     1109           1112        -3     1356
##  6  2013    12    25     1109           1112        -3     1258
##  7  2013    12    25     1110           1115        -5     1404
##  8  2013    12    25     1111           1116        -5     1339
##  9  2013    12    25     1114           1120        -6     1416
## 10  2013    12    25     1118           1105        13     1323
## #  with 76 more rows, and 12 more variables: sched_arr_time <int>,
## #   arr_delay <dbl>, carrier <chr>, flight <int>, tailnum <chr>,
## #   origin <chr>, dest <chr>, air_time <dbl>, distance <dbl>, hour <dbl>,
## #   minute <dbl>, time_hour <dttm>
…
arrange() lets you sort data

it is like the sorting you do in View(), but:

it is done on the console, and

it lets you save the new order to a data frame

this can be useful when looking for special observations, like the first flight of each day

##arrange()

arrange(df, dep_time)

## # A tibble: 336,776 x 19
##     year month   day dep_time sched_dep_time dep_delay arr_time
##    <int> <int> <int>    <int>          <int>     <dbl>    <int>
##  1  2013     1    13        1           2249        72      108
##  2  2013     1    31        1           2100       181      124
##  3  2013    11    13        1           2359         2      442
##  4  2013    12    16        1           2359         2      447
##  5  2013    12    20        1           2359         2      430
##  6  2013    12    26        1           2359         2      437
##  7  2013    12    30        1           2359         2      441
##  8  2013     2    11        1           2100       181      111
##  9  2013     2    24        1           2245        76      121
## 10  2013     3     8        1           2355         6      431
## #  with 336,766 more rows, and 12 more variables: sched_arr_time <int>,
## #   arr_delay <dbl>, carrier <chr>, flight <int>, tailnum <chr>,
## #   origin <chr>, dest <chr>, air_time <dbl>, distance <dbl>, hour <dbl>,
## #   minute <dbl>, time_hour <dttm>

Selecting columns: select()

What filter() does with rows, select() does with columns

select(df, dep_time, carrier)

## # A tibble: 336,776 x 2
##    dep_time carrier
##       <int> <chr>  
##  1      517 UA     
##  2      533 UA     
##  3      542 AA     
##  4      544 B6     
##  5      554 DL     
##  6      554 UA     
##  7      555 B6     
##  8      557 EV     
##  9      557 B6     
## 10      558 AA     
## #  with 336,766 more rows
…
you want to exploit naming patterns: you use starts_with("string"), ends_with("string"), contains("string")

you want to select all variables: you use everything()

everything is useful to reorder variables

renaming variables: rename()

rename() is a version of select() that keeps all variables

you use it as rename(data, newname = oldname)

rename(df, mois = month)

## # A tibble: 336,776 x 19
##     year  mois   day dep_time sched_dep_time dep_delay arr_time
##    <int> <int> <int>    <int>          <int>     <dbl>    <int>
##  1  2013     1     1      517            515         2      830
##  2  2013     1     1      533            529         4      850
##  3  2013     1     1      542            540         2      923
##  4  2013     1     1      544            545        -1     1004
##  5  2013     1     1      554            600        -6      812
##  6  2013     1     1      554            558        -4      740
##  7  2013     1     1      555            600        -5      913
##  8  2013     1     1      557            600        -3      709
##  9  2013     1     1      557            600        -3      838
## 10  2013     1     1      558            600        -2      753
## #  with 336,766 more rows, and 12 more variables: sched_arr_time <int>,
## #   arr_delay <dbl>, carrier <chr>, flight <int>, tailnum <chr>,
## #   origin <chr>, dest <chr>, air_time <dbl>, distance <dbl>, hour <dbl>,
## #   minute <dbl>, time_hour <dttm>

creating new variables: mutate()

you want to create a new variable with some manipulation

you can use mutate(data, newvar = f(oldvar))

where f() is some function or manipulation

df_new <- mutate(df, starting_year = year - 2013)
select(df_new, starting_year)

## # A tibble: 336,776 x 1
##    starting_year
##            <dbl>
##  1             0
##  2             0
##  3             0
##  4             0
##  5             0
##  6             0
##  7             0
##  8             0
##  9             0
## 10             0
## #  with 336,766 more rows

mutate() properties

you can create more variables in one single mutate() call

df_new <- mutate(df, starting_year = year - 2013, speed = distance /air_time * 60,
                 speed2 = speed**2)
select(df_new, starting_year, speed, speed2)

## # A tibble: 336,776 x 3
##    starting_year speed  speed2
##            <dbl> <dbl>   <dbl>
##  1             0  370. 136933.
##  2             0  374. 140080.
##  3             0  408. 166770.
##  4             0  517. 267001.
##  5             0  394. 155345.
##  6             0  288.  82714.
##  7             0  404. 163564.
##  8             0  259.  67208.
##  9             0  405. 163678.
## 10             0  319. 101567.
## #  with 336,766 more rows

mutate() properties

you can use right away the newly created variables

df_new <- mutate(df, speed = distance /air_time * 60, speed_squared = speed ** 2)
select(df_new, speed, speed_squared)

## # A tibble: 336,776 x 2
##    speed speed_squared
##    <dbl>         <dbl>
##  1  370.       136933.
##  2  374.       140080.
##  3  408.       166770.
##  4  517.       267001.
##  5  394.       155345.
##  6  288.        82714.
##  7  404.       163564.
##  8  259.        67208.
##  9  405.       163678.
## 10  319.       101567.
## #  with 336,766 more rows
…
## # A tibble: 3 x 2
##   origin meandelay
##   <chr>      <dbl>
## 1 EWR        10.1 
## 2 JFK         6.88
## 3 LGA         5.58

df %>% 
  group_by(month, carrier) %>% 
  summarise(meandelay = mean(dep_delay, na.rm = T))

## # A tibble: 185 x 3
## # Groups:   month [12]
##    month carrier meandelay
##    <int> <chr>       <dbl>
##  1     1 9E          16.9 
##  2     1 AA           6.93
##  3     1 AS           7.35
##  4     1 B6           9.49
##  5     1 DL           3.85
##  6     1 EV          24.2 
##  7     1 F9          10   
##  8     1 FL           1.97
##  9     1 HA          54.4 
## 10     1 MQ           6.49
## #  with 175 more rows
…
making summarize() more useful: group_by()

summarize() is not so useful -> one value

but it can be extremely useful if we can group data by a special variable, to see, e.g., monthly values

this is what you do with group_by()

which groups the data frame by levels of one (or more) variablesn

nothing changes but now R knows this is a grouped data frame

group_by(df, month)

## # A tibble: 336,776 x 19
## # Groups:   month [12]
##     year month   day dep_time sched_dep_time dep_delay arr_time
##    <int> <int> <int>    <int>          <int>     <dbl>    <int>
##  1  2013     1     1      517            515         2      830
##  2  2013     1     1      533            529         4      850
##  3  2013     1     1      542            540         2      923
##  4  2013     1     1      544            545        -1     1004
##  5  2013     1     1      554            600        -6      812
##  6  2013     1     1      554            558        -4      740
##  7  2013     1     1      555            600        -5      913
##  8  2013     1     1      557            600        -3      709
##  9  2013     1     1      557            600        -3      838
## 10  2013     1     1      558            600        -2      753
## #  with 336,766 more rows, and 12 more variables: sched_arr_time <int>,
## #   arr_delay <dbl>, carrier <chr>, flight <int>, tailnum <chr>,
## #   origin <chr>, dest <chr>, air_time <dbl>, distance <dbl>, hour <dbl>,
## #   minute <dbl>, time_hour <dttm>
…
example: delay by month and day

output has 365 rows

df_bymonth_byday <- group_by(df, month, day)
summarise(df_bymonth_byday, meandelay = mean(dep_delay, na.rm = TRUE))

## # A tibble: 365 x 3
## # Groups:   month [12]
##    month   day meandelay
##    <int> <int>     <dbl>
##  1     1     1     11.5 
##  2     1     2     13.9 
##  3     1     3     11.0 
##  4     1     4      8.95
##  5     1     5      5.73
##  6     1     6      7.15
##  7     1     7      5.42
##  8     1     8      2.55
##  9     1     9      2.28
## 10     1    10      2.84
## #  with 355 more rows
…
that might or might not be linked / linkable

e.g.you might need to merge data coming from different sources (INSEE and Eurostat)

or you might do some computations / summarize and would like to merge these back

using the nycflights13 dataset again

planes

library(nycflights13)
planes <- nycflights13::planes
planes

## # A tibble: 3,322 x 9
##    tailnum  year type       manufacturer  model  engines seats speed engine
##    <chr>   <int> <chr>      <chr>         <chr>    <int> <int> <int> <chr> 
##  1 N10156   2004 Fixed win EMBRAER       EMB-1       2    55    NA Turbo
##  2 N102UW   1998 Fixed win AIRBUS INDUS A320-       2   182    NA Turbo
##  3 N103US   1999 Fixed win AIRBUS INDUS A320-       2   182    NA Turbo
##  4 N104UW   1999 Fixed win AIRBUS INDUS A320-       2   182    NA Turbo
##  5 N10575   2002 Fixed win EMBRAER       EMB-1       2    55    NA Turbo
##  6 N105UW   1999 Fixed win AIRBUS INDUS A320-       2   182    NA Turbo
##  7 N107US   1999 Fixed win AIRBUS INDUS A320-       2   182    NA Turbo
##  8 N108UW   1999 Fixed win AIRBUS INDUS A320-       2   182    NA Turbo
##  9 N109UW   1999 Fixed win AIRBUS INDUS A320-       2   182    NA Turbo
## 10 N110UW   1999 Fixed win AIRBUS INDUS A320-       2   182    NA Turbo
## #  with 3,312 more rows

using the nycflights13 dataset again

airports

airports <- nycflights13::airports
airports

## # A tibble: 1,458 x 8
##    faa   name                    lat    lon   alt    tz dst   tzone        
##    <chr> <chr>                 <dbl>  <dbl> <int> <dbl> <chr> <chr>        
##  1 04G   Lansdowne Airport      41.1  -80.6  1044    -5 A     America/New_
##  2 06A   Moton Field Municipa  32.5  -85.7   264    -6 A     America/Chic
##  3 06C   Schaumburg Regional    42.0  -88.1   801    -6 A     America/Chic
##  4 06N   Randall Airport        41.4  -74.4   523    -5 A     America/New_
##  5 09J   Jekyll Island Airport  31.1  -81.4    11    -5 A     America/New_
##  6 0A9   Elizabethton Municip  36.4  -82.2  1593    -5 A     America/New_
##  7 0G6   Williams County Airp  41.5  -84.5   730    -5 A     America/New_
##  8 0G7   Finger Lakes Regiona  42.9  -76.8   492    -5 A     America/New_
##  9 0P2   Shoestring Aviation   39.8  -76.6  1000    -5 U     America/New_
## 10 0S9   Jefferson County Intl  48.1 -123.    108    -8 A     America/Los_
## #  with 1,448 more rows

using the nycflights13 dataset again

flights

flights <- nycflights13::flights
flights

## # A tibble: 336,776 x 19
##     year month   day dep_time sched_dep_time dep_delay arr_time
##    <int> <int> <int>    <int>          <int>     <dbl>    <int>
##  1  2013     1     1      517            515         2      830
##  2  2013     1     1      533            529         4      850
##  3  2013     1     1      542            540         2      923
##  4  2013     1     1      544            545        -1     1004
##  5  2013     1     1      554            600        -6      812
##  6  2013     1     1      554            558        -4      740
##  7  2013     1     1      555            600        -5      913
##  8  2013     1     1      557            600        -3      709
##  9  2013     1     1      557            600        -3      838
## 10  2013     1     1      558            600        -2      753
## #  with 336,766 more rows, and 12 more variables: sched_arr_time <int>,
## #   arr_delay <dbl>, carrier <chr>, flight <int>, tailnum <chr>,
## #   origin <chr>, dest <chr>, air_time <dbl>, distance <dbl>, hour <dbl>,
## #   minute <dbl>, time_hour <dttm>
…
in our case: * do newer planes fly the longest routes from NYC?*

we have most information on the flights dataset

we need only the year built from the planes dataset

answering our question  joining

distance <- flights %>% select(tailnum, distance)
yearbuilt <- planes %>% select(tailnum, year)
answer <- left_join(distance, yearbuilt, by = "tailnum")
answer

## # A tibble: 336,776 x 3
##    tailnum distance  year
##    <chr>      <dbl> <int>
##  1 N14228      1400  1999
##  2 N24211      1416  1998
##  3 N619AA      1089  1990
##  4 N804JB      1576  2012
##  5 N668DN       762  1991
##  6 N39463       719  2012
##  7 N516JB      1065  2000
##  8 N829AS       229  1998
##  9 N593JB       944  2004
## 10 N3ALAA       733    NA
## #  with 336,766 more rows
…
note: 1 mtre = 3,28084 mtres

altitude is in the airports df

flights are in the flights df

solution

a lot of flights, since denver sits at 1600mt!

alt_df <- airports %>% select(faa,alt) %>% mutate(alt = alt/3.28024) %>% rename(dest = faa)
answer <- left_join(flights, alt_df, by = "dest") %>% filter(alt>1000) 
answer

## # A tibble: 10,291 x 20
##     year month   day dep_time sched_dep_time dep_delay arr_time
##    <int> <int> <int>    <int>          <int>     <dbl>    <int>
##  1  2013     1     1      646            645         1      910
##  2  2013     1     1      655            655         0     1021
##  3  2013     1     1      727            730        -3      959
##  4  2013     1     1      752            750         2     1025
##  5  2013     1     1      754            755        -1     1103
##  6  2013     1     1      813            815        -2     1103
##  7  2013     1     1      833            835        -2     1134
##  8  2013     1     1      848            851        -3     1155
##  9  2013     1     1      906            843        23     1134
## 10  2013     1     1      926            928        -2     1233
## #  with 10,281 more rows, and 13 more variables: sched_arr_time <int>,
## #   arr_delay <dbl>, carrier <chr>, flight <int>, tailnum <chr>,
## #   origin <chr>, dest <chr>, air_time <dbl>, distance <dbl>, hour <dbl>,
## #   minute <dbl>, time_hour <dttm>, alt <dbl>
…
