Exercises lecture 3 – data wrangling
…
9/11/2019

filter() & select()

Exercice 1

sauvegardez dans un nouvel objet tous les vols partis entre midi et deux heures, en gardant juste l’info sur l’aéroport de départ et d’arrivée

df <- flights

temp <- filter(df, dep_time>1200 & dep_time <1400)
ex1 <- select(temp, origin, dest)
ex1

## # A tibble: 32,558 x 2
##    origin dest 
##    <chr>  <chr>
##  1 EWR    BTV  
##  2 EWR    SJU  
##  3 EWR    ATL  
##  4 JFK    SFO  
##  5 EWR    MCO  
##  6 EWR    IAH  
##  7 EWR    BUF  
##  8 JFK    HOU  
##  9 EWR    CLT  
## 10 EWR    ORD  
## # … with 32,548 more rows

df %>% 
  filter(dep_time>1200 & dep_time <1400) %>% 
  select(origin, dest)

## # A tibble: 32,558 x 2
##    origin dest 
##    <chr>  <chr>
##  1 EWR    BTV  
##  2 EWR    SJU  
##  3 EWR    ATL  
##  4 JFK    SFO  
##  5 EWR    MCO  
##  6 EWR    IAH  
##  7 EWR    BUF  
##  8 JFK    HOU  
##  9 EWR    CLT  
## 10 EWR    ORD  
## # … with 32,548 more rows
…
mutate()

Exercice 4

créez une variable qui montre la vitesse de chaque avion

df %>% 
  mutate(vitesse = distance / air_time,
         kmh = vitesse*60*1.60934) %>% 
  select(kmh, vitesse, distance, air_time, everything())

## # A tibble: 336,776 x 21
##      kmh vitesse distance air_time  year month   day dep_time
##    <dbl>   <dbl>    <dbl>    <dbl> <int> <int> <int>    <int>
##  1  596.    6.17     1400      227  2013     1     1      517
##  2  602.    6.24     1416      227  2013     1     1      533
##  3  657.    6.81     1089      160  2013     1     1      542
##  4  832.    8.61     1576      183  2013     1     1      544
##  5  634.    6.57      762      116  2013     1     1      554
##  6  463.    4.79      719      150  2013     1     1      554
##  7  651.    6.74     1065      158  2013     1     1      555
##  8  417.    4.32      229       53  2013     1     1      557
##  9  651.    6.74      944      140  2013     1     1      557
## 10  513.    5.31      733      138  2013     1     1      558
## # … with 336,766 more rows, and 13 more variables: sched_dep_time <int>,
## #   dep_delay <dbl>, arr_time <int>, sched_arr_time <int>,
## #   arr_delay <dbl>, carrier <chr>, flight <int>, tailnum <chr>,
## #   origin <chr>, dest <chr>, hour <dbl>, minute <dbl>, time_hour <dttm>

Exercice 5

créez une variable qui calcule l’impact (en %) du retard à l’arrivée sur le temps de vol

df %>% 
  mutate(impact_retard_pct = (100*arr_delay)/air_time) %>% 
  select(impact_retard_pct, arr_delay, air_time, everything())

## # A tibble: 336,776 x 20
##    impact_retard_p… arr_delay air_time  year month   day dep_time
##               <dbl>     <dbl>    <dbl> <int> <int> <int>    <int>
##  1             4.85        11      227  2013     1     1      517
##  2             8.81        20      227  2013     1     1      533
##  3            20.6         33      160  2013     1     1      542
##  4            -9.84       -18      183  2013     1     1      544
##  5           -21.6        -25      116  2013     1     1      554
##  6             8           12      150  2013     1     1      554
##  7            12.0         19      158  2013     1     1      555
##  8           -26.4        -14       53  2013     1     1      557
##  9            -5.71        -8      140  2013     1     1      557
## 10             5.80         8      138  2013     1     1      558
## # … with 336,766 more rows, and 13 more variables: sched_dep_time <int>,
## #   dep_delay <dbl>, arr_time <int>, sched_arr_time <int>, carrier <chr>,
## #   flight <int>, tailnum <chr>, origin <chr>, dest <chr>, distance <dbl>,
## #   hour <dbl>, minute <dbl>, time_hour <dttm>
…
