Rapport statistique sur un jeu de données
…
   Tout d’abord, j’ai traité l’ensemble de données original, et j’ai obtenu deux sous-tableaux tgv_sncf et pourquoi_taux.

Sous-tableau 1 : tgv_sncf

tgv %>%
  mutate(nombre_trains = total_num_trips - num_of_canceled_trains,
         taux_retard_departure = num_late_at_departure / nombre_trains * 100,
         taux_retard_arrival = num_arriving_late / nombre_trains * 100) %>%
  select(year, month, nombre_trains, service, journey_time_avg, total_num_trips, num_of_canceled_trains, 
         contains("departure"), contains("departing"), contains("arrival"), 
         contains("arriving"),-contains("comment")) -> tgv_sncf

tgv_sncf

# A tibble: 5,462 x 17
    year month nombre_trains service journey_time_avg total_num_trips
   <dbl> <dbl>         <dbl> <chr>              <dbl>           <dbl>
 1  2017     9           299 Nation…             85.1             299
 2  2017     9           217 Nation…             47.1             218
 3  2017     9           332 Nation…            116.              333
 4  2017     9           480 Nation…            161.              481
 5  2017     9           190 Nation…            164.              190
 6  2017     9           190 Nation…            129.              191
 7  2017     9           208 Nation…            184.              208
 8  2017     9           214 Nation…            186.              216
 9  2017     9           660 Nation…            121.              661
10  2017     9           201 Nation…             97.4             201
# … with 5,452 more rows, and 11 more variables: num_of_canceled_trains <dbl>,
#   departure_station <chr>, num_late_at_departure <dbl>,
#   avg_delay_late_at_departure <dbl>, taux_retard_departure <dbl>,
#   avg_delay_all_departing <dbl>, arrival_station <chr>,
#   avg_delay_late_on_arrival <dbl>, taux_retard_arrival <dbl>,
#   num_arriving_late <dbl>, avg_delay_all_arriving <dbl>
…
